{
	"info": {
		"_postman_id": "28999ef6-de86-4435-bc0f-0735f100b8aa",
		"name": "_Debugging CRUD access using Regular + Social Login",
		"schema": "https://schema.getpostman.com/json/collection/v2.1.0/collection.json"
	},
	"item": [
		{
			"name": "TEST Regular Login API Auth - Step 1: Get Token for API Access - SECURE",
			"request": {
				"method": "POST",
				"header": [
					{
						"key": "Content-Type",
						"name": "Content-Type",
						"type": "text",
						"value": "text/plain"
					}
				],
				"body": {
					"mode": "formdata",
					"formdata": [
						{
							"key": "username",
							"value": "kunal@keenbrain.com",
							"type": "text"
						},
						{
							"key": "password",
							"value": "kp123",
							"type": "text"
						},
						{
							"key": "scope",
							"value": "*",
							"type": "text"
						}
					],
					"options": {
						"raw": {
							"language": "text"
						}
					}
				},
				"url": {
					"raw": "http://localhost:8000/api/v1/auth/login",
					"protocol": "http",
					"host": [
						"localhost"
					],
					"port": "8000",
					"path": [
						"api",
						"v1",
						"auth",
						"login"
					]
				}
			},
			"response": []
		},
		{
			"name": "TEST Regular login API Auth - Step 2: Use Token to get user",
			"protocolProfileBehavior": {
				"disableBodyPruning": true
			},
			"request": {
				"auth": {
					"type": "bearer",
					"bearer": [
						{
							"key": "token",
							"value": "eyJ0eXAiOiJKV1QiLCJhbGciOiJSUzI1NiIsImp0aSI6Ijk0N2FjMDM3NzI4NDUyN2ZiN2NkY2QxODM0NGI0OGI4NjM3YTdiN2Y1OTE5ZjUwOWUwNjBlMmY3OGJmYWU1YjcxYzQzODgyMTU4NTQzZDEyIn0.eyJhdWQiOiIyIiwianRpIjoiOTQ3YWMwMzc3Mjg0NTI3ZmI3Y2RjZDE4MzQ0YjQ4Yjg2MzdhN2I3ZjU5MTlmNTA5ZTA2MGUyZjc4YmZhZTViNzFjNDM4ODIxNTg1NDNkMTIiLCJpYXQiOjE1NzE0MzA2MzQsIm5iZiI6MTU3MTQzMDYzNCwiZXhwIjoxNjAzMDUzMDM0LCJzdWIiOiIxIiwic2NvcGVzIjpbIioiXX0.MEjAC9WoeMbnLnXihXQLW2oVZAe6xApiSqoqX58HegWWw0P-4rrlm01gWnydGqRa3bty_8schvOLIW6ZiLD4CZPUohJskVUaBe3Ube4MXF4fERsiDHrMaofzt-0dTtOm3yV33KseCmojwZxs3j017DvTHb6ZU9WByYBvWSEtOS-VhCX8k_Xu_yjq5ZZXnmnOkZvwPXUCcYrvdWmkR4A3KpSJwEk6NQBdlTUkCsKz4-1-4CJiGrFCjp0-LuIZxI2PMPkkw32bGPQCcDw8hcus4xKJ_gR6q6igvwlWHadVAk3bZuxx8_auBFGCtxnYBGqi7aGuYFn0XZbMs_xyLQbll6pScLTW6xgfOOZkTGhZ-3jpNsx6J5TUN3AwX4sMTE9fFn132OSZ-S2MgUS4Q5_YOW6MbQJ6TECFEyLMPevTR88LNsEwBbMFsQtM1kv0mkM2RxJY5BF6GdUC91AeVwxawCvyH7YDdRCCBMNIF8Iuuc9LiDziYpOD2XlEVWswP83_wn5mnhawvrEcE7hONBk6pL9FEk0USEjQ-yL3JdL2AQMGch75JW5tDh2Vn7MtT96kP5EBVIpGsjT_Yrnv43V0L594ZkMEc0rhBnm5mxdF-kiG2HSiQf2ZmkGgCY_C4krmug-cBLSB0eQbStFXIKzdt9suaTI--OGMRYPjygHpCOs",
							"type": "string"
						}
					]
				},
				"method": "GET",
				"header": [
					{
						"key": "Accept",
						"type": "text",
						"value": "application/json"
					}
				],
				"body": {
					"mode": "formdata",
					"formdata": []
				},
				"url": {
					"raw": "http://localhost:8000/api/v1/auth/loggedinUser",
					"protocol": "http",
					"host": [
						"localhost"
					],
					"port": "8000",
					"path": [
						"api",
						"v1",
						"auth",
						"loggedinUser"
					]
				}
			},
			"response": []
		},
		{
			"name": "TEST Regular login API Auth - Step 3: Use Token to get all tags",
			"protocolProfileBehavior": {
				"disableBodyPruning": true
			},
			"request": {
				"auth": {
					"type": "bearer",
					"bearer": [
						{
							"key": "token",
							"value": "eyJ0eXAiOiJKV1QiLCJhbGciOiJSUzI1NiIsImp0aSI6Ijk0N2FjMDM3NzI4NDUyN2ZiN2NkY2QxODM0NGI0OGI4NjM3YTdiN2Y1OTE5ZjUwOWUwNjBlMmY3OGJmYWU1YjcxYzQzODgyMTU4NTQzZDEyIn0.eyJhdWQiOiIyIiwianRpIjoiOTQ3YWMwMzc3Mjg0NTI3ZmI3Y2RjZDE4MzQ0YjQ4Yjg2MzdhN2I3ZjU5MTlmNTA5ZTA2MGUyZjc4YmZhZTViNzFjNDM4ODIxNTg1NDNkMTIiLCJpYXQiOjE1NzE0MzA2MzQsIm5iZiI6MTU3MTQzMDYzNCwiZXhwIjoxNjAzMDUzMDM0LCJzdWIiOiIxIiwic2NvcGVzIjpbIioiXX0.MEjAC9WoeMbnLnXihXQLW2oVZAe6xApiSqoqX58HegWWw0P-4rrlm01gWnydGqRa3bty_8schvOLIW6ZiLD4CZPUohJskVUaBe3Ube4MXF4fERsiDHrMaofzt-0dTtOm3yV33KseCmojwZxs3j017DvTHb6ZU9WByYBvWSEtOS-VhCX8k_Xu_yjq5ZZXnmnOkZvwPXUCcYrvdWmkR4A3KpSJwEk6NQBdlTUkCsKz4-1-4CJiGrFCjp0-LuIZxI2PMPkkw32bGPQCcDw8hcus4xKJ_gR6q6igvwlWHadVAk3bZuxx8_auBFGCtxnYBGqi7aGuYFn0XZbMs_xyLQbll6pScLTW6xgfOOZkTGhZ-3jpNsx6J5TUN3AwX4sMTE9fFn132OSZ-S2MgUS4Q5_YOW6MbQJ6TECFEyLMPevTR88LNsEwBbMFsQtM1kv0mkM2RxJY5BF6GdUC91AeVwxawCvyH7YDdRCCBMNIF8Iuuc9LiDziYpOD2XlEVWswP83_wn5mnhawvrEcE7hONBk6pL9FEk0USEjQ-yL3JdL2AQMGch75JW5tDh2Vn7MtT96kP5EBVIpGsjT_Yrnv43V0L594ZkMEc0rhBnm5mxdF-kiG2HSiQf2ZmkGgCY_C4krmug-cBLSB0eQbStFXIKzdt9suaTI--OGMRYPjygHpCOs",
							"type": "string"
						}
					]
				},
				"method": "GET",
				"header": [
					{
						"key": "Accept",
						"type": "text",
						"value": "application/json"
					}
				],
				"body": {
					"mode": "formdata",
					"formdata": []
				},
				"url": {
					"raw": "http://localhost:8000/api/v1/tags",
					"protocol": "http",
					"host": [
						"localhost"
					],
					"port": "8000",
					"path": [
						"api",
						"v1",
						"tags"
					]
				}
			},
			"response": []
		},
		{
			"name": "TEST SOCIAL Login API Auth - Step 1: Get Token for API Access - SECURE Copy",
			"request": {
				"method": "POST",
				"header": [
					{
						"key": "Content-Type",
						"name": "Content-Type",
						"value": "application/x-www-form-urlencoded",
						"type": "text"
					}
				],
				"body": {
					"mode": "formdata",
					"formdata": [
						{
							"key": "scope",
							"value": "*",
							"type": "text"
						},
						{
							"key": "grant_type",
							"value": "client_credentials",
							"description": "password, authorization_code, implicit, client_credentials, ",
							"type": "text"
						},
						{
							"key": "client_id",
							"value": "2",
							"description": "from oauth_clients",
							"type": "text"
						},
						{
							"key": "client_secret",
							"value": "S2Iw1GjYXca34etoRTfIYNZ6n2zeXS2MN4VLPDWi",
							"type": "text"
						},
						{
							"key": "provider",
							"value": "github",
							"type": "text"
						},
						{
							"key": "accessToken",
							"value": "eyJ0eXAiOiJKV1QiLCJhbGciOiJIUzI1NiJ9.eyJpc3MiOiJodHRwOlwvXC9sb2NhbGhvc3Q6ODAwMFwvYXBpXC92MVwvYXV0aFwvbG9naW5cL2dpdGh1YlwvY2FsbGJhY2siLCJpYXQiOjE1NzE0MzQ1MjUsImV4cCI6MTU3MTQzODEyNSwibmJmIjoxNTcxNDM0NTI1LCJqdGkiOiJjVDJIUFoybEJUcDNPc3p0Iiwic3ViIjoyOCwicHJ2IjoiODdlMGFmMWVmOWZkMTU4MTJmZGVjOTcxNTNhMTRlMGIwNDc1NDZhYSJ9.msOfRZgY261r1Cne-66_1QC7t4lWUzIC1CBcF5LlHYU",
							"type": "text"
						},
						{
							"key": "access_token",
							"value": "eyJ0eXAiOiJKV1QiLCJhbGciOiJIUzI1NiJ9.eyJpc3MiOiJodHRwOlwvXC9sb2NhbGhvc3Q6ODAwMFwvYXBpXC92MVwvYXV0aFwvbG9naW5cL2dpdGh1YlwvY2FsbGJhY2siLCJpYXQiOjE1NzE0MzQ1MjUsImV4cCI6MTU3MTQzODEyNSwibmJmIjoxNTcxNDM0NTI1LCJqdGkiOiJjVDJIUFoybEJUcDNPc3p0Iiwic3ViIjoyOCwicHJ2IjoiODdlMGFmMWVmOWZkMTU4MTJmZGVjOTcxNTNhMTRlMGIwNDc1NDZhYSJ9.msOfRZgY261r1Cne-66_1QC7t4lWUzIC1CBcF5LlHYU",
							"type": "text"
						}
					],
					"options": {
						"raw": {
							"language": "text"
						}
					}
				},
				"url": {
					"raw": "http://localhost:8000/oauth/token",
					"protocol": "http",
					"host": [
						"localhost"
					],
					"port": "8000",
					"path": [
						"oauth",
						"token"
					]
				}
			},
			"response": []
		},
		{
			"name": "TEST SOCIAL login API Auth - Step 2: Use (provided) Token to get user",
			"protocolProfileBehavior": {
				"disableBodyPruning": true
			},
			"request": {
				"auth": {
					"type": "bearer",
					"bearer": [
						{
							"key": "token",
							"value": "eyJ0eXAiOiJKV1QiLCJhbGciOiJSUzI1NiIsImp0aSI6IjM4NWM5YmNmNDVmMDFhM2RiYjMyYzMwMjY0NGRkOTg4MGIxMGJjMzA1ZDk1NjRjZTAxNmEwZDI0NjZlNTI4ODdiMWU4ODBiNzg2MzMzNDlmIn0.eyJhdWQiOiIyIiwianRpIjoiMzg1YzliY2Y0NWYwMWEzZGJiMzJjMzAyNjQ0ZGQ5ODgwYjEwYmMzMDVkOTU2NGNlMDE2YTBkMjQ2NmU1Mjg4N2IxZTg4MGI3ODYzMzM0OWYiLCJpYXQiOjE1NzE0MzQ1OTAsIm5iZiI6MTU3MTQzNDU5MCwiZXhwIjoxNjAzMDU2OTkwLCJzdWIiOiIiLCJzY29wZXMiOlsiKiJdfQ.KfQJNhssPRErls-TUA3SlYZrybslYRgHoC3KFcG0qMErOALQzHu5OESlRtbTDc6yLZqifgWkQPNyqhCLZVfGKBB8epSqdM6zRf8nIuRsN59xe6biDcMpn6kpwtl1dSl7gtyAHuiIjnZSQTfXK2TIxHFhQIGGm0pnJtN9CKJJa6IEj0vAIYA5KtapFKAFm0-k8jmP0TP12E2Pmw7VeUnS9OqWUvGBix0vWFsI_MuINkhN-MNWnjARJc_duiJMBA4RGJ5WwPMIKQALfiel_Cq8AmXMMVQYxodqu34ul3zHU-ujT-CgPEildLQfBwLsc6K4hSsAOLgN2FtpgroEAbv6Uz7OgfnZgZUr4W00Zvg9Xdu6b9AgOrT21S8-E_w0y3Fpk7KtoDLlCYVNTLc0GqYGBIMTLtP1MnmAXnRu8PqjUcO6oZqMmBFSwAXqNKjwjX0f_cQybfuZxSN8WOjpGDC6-wa3rRfVvXktR5DUb3pwV3bX3jjOHFS2qMtdONTAwpZhysw2HUAnMu1OhAgzbXJXom5vF8jFnojy9630HpE6wu-m-vWprrogz124_HfkKpqjxxqZrLJcC-tlOvsCjqwB7P2e58l2k5YJVPTXH21keA_CxrOzCBTiS32Bs7D-gpKcISmxe4E2ZdGiL-O92TebQA5neGaG7Kpuc5eroubGlFM",
							"type": "string"
						}
					]
				},
				"method": "GET",
				"header": [
					{
						"key": "Accept",
						"type": "text",
						"value": "application/json"
					}
				],
				"body": {
					"mode": "formdata",
					"formdata": []
				},
				"url": {
					"raw": "http://localhost:8000/api/v1/auth/me",
					"protocol": "http",
					"host": [
						"localhost"
					],
					"port": "8000",
					"path": [
						"api",
						"v1",
						"auth",
						"me"
					]
				}
			},
			"response": []
		},
		{
			"name": "TEST SOCIAL login API Auth - Step 3: Use Token to get all tags",
			"protocolProfileBehavior": {
				"disableBodyPruning": true
			},
			"request": {
				"auth": {
					"type": "bearer",
					"bearer": [
						{
							"key": "token",
							"value": "eyJ0eXAiOiJKV1QiLCJhbGciOiJSUzI1NiIsImp0aSI6IjM4NWM5YmNmNDVmMDFhM2RiYjMyYzMwMjY0NGRkOTg4MGIxMGJjMzA1ZDk1NjRjZTAxNmEwZDI0NjZlNTI4ODdiMWU4ODBiNzg2MzMzNDlmIn0.eyJhdWQiOiIyIiwianRpIjoiMzg1YzliY2Y0NWYwMWEzZGJiMzJjMzAyNjQ0ZGQ5ODgwYjEwYmMzMDVkOTU2NGNlMDE2YTBkMjQ2NmU1Mjg4N2IxZTg4MGI3ODYzMzM0OWYiLCJpYXQiOjE1NzE0MzQ1OTAsIm5iZiI6MTU3MTQzNDU5MCwiZXhwIjoxNjAzMDU2OTkwLCJzdWIiOiIiLCJzY29wZXMiOlsiKiJdfQ.KfQJNhssPRErls-TUA3SlYZrybslYRgHoC3KFcG0qMErOALQzHu5OESlRtbTDc6yLZqifgWkQPNyqhCLZVfGKBB8epSqdM6zRf8nIuRsN59xe6biDcMpn6kpwtl1dSl7gtyAHuiIjnZSQTfXK2TIxHFhQIGGm0pnJtN9CKJJa6IEj0vAIYA5KtapFKAFm0-k8jmP0TP12E2Pmw7VeUnS9OqWUvGBix0vWFsI_MuINkhN-MNWnjARJc_duiJMBA4RGJ5WwPMIKQALfiel_Cq8AmXMMVQYxodqu34ul3zHU-ujT-CgPEildLQfBwLsc6K4hSsAOLgN2FtpgroEAbv6Uz7OgfnZgZUr4W00Zvg9Xdu6b9AgOrT21S8-E_w0y3Fpk7KtoDLlCYVNTLc0GqYGBIMTLtP1MnmAXnRu8PqjUcO6oZqMmBFSwAXqNKjwjX0f_cQybfuZxSN8WOjpGDC6-wa3rRfVvXktR5DUb3pwV3bX3jjOHFS2qMtdONTAwpZhysw2HUAnMu1OhAgzbXJXom5vF8jFnojy9630HpE6wu-m-vWprrogz124_HfkKpqjxxqZrLJcC-tlOvsCjqwB7P2e58l2k5YJVPTXH21keA_CxrOzCBTiS32Bs7D-gpKcISmxe4E2ZdGiL-O92TebQA5neGaG7Kpuc5eroubGlFM",
							"type": "string"
						}
					]
				},
				"method": "GET",
				"header": [
					{
						"key": "Accept",
						"type": "text",
						"value": "application/json"
					}
				],
				"body": {
					"mode": "formdata",
					"formdata": []
				},
				"url": {
					"raw": "http://localhost:8000/api/v1/tags",
					"protocol": "http",
					"host": [
						"localhost"
					],
					"port": "8000",
					"path": [
						"api",
						"v1",
						"tags"
					]
				}
			},
			"response": []
		}
	],
	"protocolProfileBehavior": {}
}